34W
W32.W
W32.W
W..4W11.4W4.5W..W
W..W17.W4.W6.W
W..W17.W8.W..W
W..W17.W4.5W..W
W32.W
W9.WW21.W
W9.WW21.W
W32.W
W32.W
W..W17.W4.5W..W
W..W17.W4.W6.W
W..W5.M11.W11.W
W..4W11.4W8.W..W
W25.5W..W
W27.M4.W
W16.M15.W
W6.M25.W
W32.W
W..WW4.WW...WW4.WW11.W
W..WW4.WW...WW4.WW7.P...W
W..WW4.WW...WW4.WW11.W
W17.M14.W
34W
